E:\studyPatterns\src\main\java\factory\impl\LinuxSystem.java
E:\studyPatterns\src\main\java\factory\SystemFactory.java
E:\studyPatterns\src\main\java\factory\impl\WindowsSystem.java
E:\studyPatterns\src\main\java\factory\impl\MacosSystem.java
E:\studyPatterns\src\main\java\factory\Client.java
E:\studyPatterns\src\main\java\factory\impl\UnixSystem.java
E:\studyPatterns\src\main\java\factory\System.java
E:\studyPatterns\src\main\java\factory\impl\SolarisSystem.java
E:\studyPatterns\src\main\java\factory\TypeSystem.java
